<?xml version="1.0" encoding="utf-8"?>
<!-- Generator: Adobe Illustrator 16.0.4, SVG Export Plug-In . SVG Version: 6.00 Build 0)  -->
<!DOCTYPE svg PUBLIC "-//W3C//DTD SVG 1.1//EN" "http://www.w3.org/Graphics/SVG/1.1/DTD/svg11.dtd">
<svg version="1.1" id="Layer_1" xmlns="http://www.w3.org/2000/svg" xmlns:xlink="http://www.w3.org/1999/xlink" x="0px" y="0px"
	 width="146.483px" height="44.731px" viewBox="9.597 4.459 146.483 44.731" enable-background="new 9.597 4.459 146.483 44.731"
	 xml:space="preserve">
<g>
	<path d="M25.343,4.459v32.438h10.193v3.093H9.597v-3.093h10.258V7.551h-9.801V4.459H25.343z"/>
	<path d="M62.124,40.635c-8.719,0-16.21-5.238-16.21-12.67c0-7.547,7.558-12.939,16.372-12.939c7.86,0,15.397,4.427,15.397,12.859
		C77.683,35.983,70.314,40.635,62.124,40.635z M51.67,27.632c0,6.025,4.982,9.683,10.495,9.683c5.049,0,10.033-3.12,10.033-9.269
		c0-6.708-5.296-9.749-10.285-9.749C56.624,18.297,51.67,21.644,51.67,27.632z"/>
	<path d="M107.728,17.103c2.677-1.584,6.126-2.361,9.604-2.169l0.652,3.139c-0.658-0.08-1.326-0.121-1.995-0.121
		c-2.132,0-4.22,0.409-6.041,1.182c1.147,1.221,1.764,2.659,1.764,4.141c0,4.509-5.612,8.367-12.463,8.367
		c-1.5,0-2.987-0.188-4.396-0.557c-0.34,0.198-2.472,1.438-2.472,2.73c0,0.771,0.771,1.347,2.097,1.604
		c0.736,0.145,2.356,0.309,4.938,0.309c3.919,0,8.099-0.345,11.708,0.69c3.674,1.055,5.378,3.188,5.378,5.303
		c0,3.276-4.199,7.471-15.915,7.471c-12.122,0-15.64-3.123-15.64-5.785c0-1.941,1.912-3.737,5.625-5.411
		c-2.186-0.812-2.774-2.238-2.774-3.255c0-1.569,1.422-3.222,3.917-4.716c-3.169-1.456-5.112-3.941-5.112-6.614
		c0-4.773,6.042-8.638,12.93-8.638C102.689,14.77,105.595,15.602,107.728,17.103z M89.954,42.493c0,0.854,0.612,2.196,3.408,2.981
		c2.614,0.733,5.559,0.798,7.138,0.798c2.314,0,5.24-0.104,7.774-1.068c2.375-0.905,3.235-2.185,3.235-3.242
		c0-1.074-0.92-2.501-4.127-2.842c-1.983-0.211-4.774-0.076-7.326-0.144c-2.646-0.068-4.481-0.175-5.793-0.294
		C92.275,39.454,89.954,40.737,89.954,42.493z M99.201,28.546c4.203,0,7.615-2.405,7.615-5.366c0-2.958-3.409-5.365-7.612-5.365
		c-4.205,0-7.617,2.407-7.617,5.367C91.586,26.14,94.996,28.546,99.201,28.546z"/>
	<path d="M140.522,40.635c-8.718,0-16.211-5.238-16.211-12.67c0-7.547,7.559-12.939,16.372-12.939
		c7.86,0,15.397,4.427,15.397,12.859C156.082,35.983,148.713,40.635,140.522,40.635z M130.069,27.632
		c0,6.025,4.981,9.683,10.495,9.683c5.049,0,10.033-3.12,10.033-9.269c0-6.708-5.296-9.749-10.285-9.749
		C135.022,18.297,130.069,21.644,130.069,27.632z"/>
</g>
</svg>
